[gd_resource type="StyleBoxFlat" format=2]

[resource]
content_margin_left = 6.0
content_margin_right = 6.0
content_margin_top = 4.0
content_margin_bottom = 4.0
bg_color = Color( 1, 1, 1, 0.0588235 )
border_width_left = 2
border_width_top = 2
border_width_right = 2
border_width_bottom = 2
border_color = Color( 1, 1, 1, 0.74902 )
corner_detail = 1
